<?xml version="1.0" standalone="no"?>
<!DOCTYPE svg PUBLIC "-//W3C//DTD SVG 1.1//EN" "http://www.w3.org/Graphics/SVG/1.1/DTD/svg11.dtd" >
<svg xmlns="http://www.w3.org/2000/svg">
<metadata>Generated by IcoMoon</metadata>
<defs>
<font id="zachs-widgets" horiz-adv-x="1024">
<font-face units-per-em="1024" ascent="960" descent="-64" />
<missing-glyph horiz-adv-x="1024" />
<glyph unicode="&#x20;" horiz-adv-x="512" d="" />
<glyph unicode="&#xe600;" glyph-name="user" d="M576 253.388v52.78c70.498 39.728 128 138.772 128 237.832 0 159.058 0 288-192 288s-192-128.942-192-288c0-99.060 57.502-198.104 128-237.832v-52.78c-217.102-17.748-384-124.42-384-253.388h896c0 128.968-166.898 235.64-384 253.388z" />
<glyph unicode="&#xe601;" glyph-name="mapmarker" d="M511.957 938.667c-214.485 0-388.395-173.909-388.395-388.437 0-214.571 305.067-635.563 388.437-635.563 61.653 0 388.48 420.992 388.48 635.563-0.043 214.528-173.952 388.437-388.523 388.437zM510.208 359.083c-109.013 0-197.333 88.32-197.333 197.333s88.32 197.333 197.333 197.333 197.333-88.32 197.333-197.333-88.32-197.333-197.333-197.333z" />
<glyph unicode="&#xe602;" glyph-name="heart" d="M512.001-0.002q-14.857 0-25.143 10.286l-356.572 344.001q-5.714 4.571-15.714 14.857t-31.714 37.429-38.857 55.714-30.571 69.143-13.429 78.857q0 125.714 72.571 196.571t200.571 70.857q35.429 0 72.286-12.286t68.571-33.143 54.571-39.143 43.429-38.857q20.571 20.571 43.429 38.857t54.571 39.143 68.571 33.143 72.286 12.286q128 0 200.571-70.857t72.571-196.571q0-126.286-130.857-257.143l-356.001-342.858q-10.286-10.286-25.143-10.286z" />
<glyph unicode="&#xe603;" glyph-name="cog" horiz-adv-x="878" d="M585.144 438.856q0 60.571-42.857 103.429t-103.429 42.857-103.429-42.857-42.857-103.429 42.857-103.429 103.429-42.857 103.429 42.857 42.857 103.429zM877.716 501.142v-126.857q0-6.857-4.571-13.143t-11.429-7.429l-105.714-16q-10.857-30.857-22.286-52 20-28.571 61.143-78.857 5.714-6.857 5.714-14.286t-5.143-13.143q-15.429-21.143-56.571-61.714t-53.714-40.571q-6.857 0-14.857 5.143l-78.857 61.714q-25.143-13.143-52-21.714-9.143-77.714-16.571-106.286-4-16-20.571-16h-126.857q-8 0-14 4.857t-6.571 12.286l-16 105.143q-28 9.143-51.429 21.143l-80.571-61.143q-5.714-5.143-14.286-5.143-8 0-14.286 6.286-72 65.143-94.286 96-4 5.714-4 13.143 0 6.857 4.571 13.143 8.571 12 29.143 38t30.857 40.286q-15.429 28.571-23.429 56.571l-104.571 15.429q-7.429 1.143-12 7.143t-4.571 13.429v126.857q0 6.857 4.571 13.143t10.857 7.429l106.286 16q8 26.286 22.286 52.571-22.857 32.571-61.143 78.857-5.714 6.857-5.714 13.714 0 5.714 5.143 13.143 14.857 20.571 56.286 61.429t54 40.857q7.429 0 14.857-5.714l78.857-61.143q25.143 13.143 52 21.714 9.143 77.714 16.571 106.286 4 16 20.571 16h126.857q8 0 14-4.857t6.571-12.286l16-105.143q28-9.143 51.429-21.143l81.143 61.143q5.143 5.143 13.714 5.143 7.429 0 14.286-5.714 73.714-68 94.286-97.143 4-4.571 4-12.571 0-6.857-4.571-13.143-8.571-12-29.143-38t-30.857-40.286q14.857-28.571 23.429-56l104.571-16q7.429-1.143 12-7.143t4.571-13.429z" />
<glyph unicode="&#xe604;" glyph-name="eye" d="M512 768c-282.784 0-512-320-512-320s229.216-320 512-320 512 320 512 320-229.216 320-512 320zM512 256c-106.016 0-192 85.984-192 192s85.984 192 192 192 192-85.984 192-192-85.984-192-192-192zM512 576c-70.688 0-128-57.312-128-128s57.312-128 128-128 128 57.312 128 128-57.312 128-128 128z" />
<glyph unicode="&#xe605;" glyph-name="comment" d="M1024.002 438.856q0-99.429-68.571-183.714t-186.286-133.143-257.143-48.857q-40 0-82.857 4.571-113.143-100-262.857-138.286-28-8-65.143-12.571-9.714-1.143-17.429 5.143t-10 16.571v0.571q-1.714 2.286-0.286 6.857t1.143 5.714 2.571 5.429l3.429 5.143t4 4.857 4.571 5.143q4 4.571 17.714 19.714t19.714 21.714 17.714 22.571 18.571 29.143 15.429 33.714 14.857 43.429q-89.714 50.857-141.429 125.714t-51.714 160.571q0 74.286 40.571 142t109.143 116.857 163.429 78 198.857 28.857q139.429 0 257.143-48.857t186.286-133.143 68.571-183.714z" />
<glyph unicode="&#xe606;" glyph-name="back-in-time" d="M563.201 880.691c-227.585 0-412.724-182.374-418.254-409.396v-10.496h-121.446l184.013-199.374 178.893 199.374h-136.806v10.496c5.478 169.114 143.77 304.385 313.601 304.385 173.363 0 313.908-141.005 313.908-314.881s-140.544-314.881-313.908-314.881c-69.478 0-133.683 22.784-185.702 61.082l-71.987-77.005c71.066-55.706 160.512-88.986 257.691-88.986 231.169 0 418.51 187.904 418.51 419.79s-187.341 419.892-418.51 419.892zM512.001 716.799v-256.001c0-6.656 1.382-13.312 3.942-19.558 2.611-6.246 6.349-11.93 11.059-16.64l163.84-163.84c14.49 9.37 28.16 19.917 40.294 32.154l-116.736 116.685v307.201h-102.4z" />
<glyph unicode="&#xe607;" glyph-name="upload-to-cloud" d="M778.908 632.882c-14.131 0-27.955-1.28-41.421-3.482-33.587 109.824-137.626 189.798-260.865 189.798-150.477 0-272.385-119.194-272.385-266.19 0-13.107 1.024-26.010 2.918-38.707-7.219 0.87-14.49 1.382-21.965 1.382-102.298 0-185.19-80.998-185.19-180.992s82.893-181.094 185.19-181.094h224.411v204.801h-128l230.401 256.001 230.401-256.001h-128v-204.801h164.506c135.322 0 245.095 107.315 245.095 239.617 0 132.403-109.773 239.668-245.095 239.668z" />
<glyph unicode="&#xe608;" glyph-name="share" d="M768 252.667q52 0 88-37t36-87q0-52-37-89t-87-37-87 37-37 89q0 20 2 28l-302 176q-38-34-88-34-52 0-90 38t-38 90 38 90 90 38q50 0 88-34l300 174q-4 20-4 30 0 52 38 90t90 38 90-38 38-90-38-90-90-38q-48 0-88 36l-300-176q4-20 4-30t-4-30l304-176q36 32 84 32z" />
<glyph unicode="&#xe609;" glyph-name="stats-bars" d="M0 128h1024v-128h-1024zM128 384h128v-192h-128zM320 640h128v-448h-128zM512 448h128v-256h-128zM704 832h128v-640h-128z" />
</font></defs></svg>